{
  "id": null,
  "title": "Akka Routers",
  "tags": [],
  "style": "dark",
  "timezone": "browser",
  "editable": true,
  "hideControls": true,
  "sharedCrosshair": false,
  "rows": [
    {
      "title": "",
      "collapse": false,
      "editable": true,
      "height": "250px",
      "panels": [
        {
          "aliasColors": {},
          "bars": false,
          "datasource": "Cinnamon Prometheus",
          "editable": true,
          "error": false,
          "fill": 1,
          "grid": {
            "threshold1": null,
            "threshold1Color": "rgba(216, 200, 27, 0.27)",
            "threshold2": null,
            "threshold2Color": "rgba(234, 112, 112, 0.22)"
          },
          "id": 1,
          "interval": "10s",
          "isNew": true,
          "legend": {
            "avg": false,
            "current": false,
            "max": false,
            "min": false,
            "show": false,
            "total": false,
            "values": false
          },
          "lines": true,
          "linewidth": 2,
          "links": [],
          "nullPointMode": "null",
          "percentage": false,
          "pointradius": 5,
          "points": false,
          "renderer": "flot",
          "seriesOverrides": [],
          "span": 6,
          "stack": false,
          "steppedLine": false,
          "targets": [
            {
              "expr": "irate(akka_router_router_routed_messages{host=~\"$Servers\", application=~\"$Applications\", actor_system=~\"$ActorSystems\", dispatcher=~\"$Dispatchers\", router=~\"$Routers\"}[1m])",
              "format": "time_series",
              "legendFormat": "{{host}} / {{dispatcher}} / {{router}}"
            }
          ],
          "timeFrom": null,
          "timeShift": null,
          "title": "Routed messages: 1min rate",
          "tooltip": {
            "msResolution": false,
            "shared": true,
            "value_type": "cumulative",
            "sort": 2
          },
          "type": "graph",
          "xaxis": {
            "show": true
          },
          "yaxes": [
            {
              "format": "ops",
              "label": "messages/second",
              "logBase": 1,
              "max": null,
              "min": 0,
              "show": true
            },
            {
              "format": "short",
              "label": null,
              "logBase": 1,
              "max": null,
              "min": null,
              "show": true
            }
          ]
        },
        {
          "aliasColors": {},
          "bars": false,
          "datasource": "Cinnamon Prometheus",
          "editable": true,
          "error": false,
          "fill": 1,
          "grid": {
            "threshold1": null,
            "threshold1Color": "rgba(216, 200, 27, 0.27)",
            "threshold2": null,
            "threshold2Color": "rgba(234, 112, 112, 0.22)"
          },
          "id": 2,
          "interval": "10s",
          "isNew": true,
          "legend": {
            "avg": false,
            "current": false,
            "max": false,
            "min": false,
            "show": false,
            "total": false,
            "values": false
          },
          "lines": true,
          "linewidth": 2,
          "links": [],
          "nullPointMode": "null",
          "percentage": false,
          "pointradius": 5,
          "points": false,
          "renderer": "flot",
          "seriesOverrides": [],
          "span": 6,
          "stack": false,
          "steppedLine": false,
          "targets": [
            {
              "expr": "akka_router_router_processing_time_ns{host=~\"$Servers\", application=~\"$Applications\", actor_system=~\"$ActorSystems\", dispatcher=~\"$Dispatchers\", router=~\"$Routers\", quantile=~\"$MetricType\"}",
              "format": "time_series",
              "legendFormat": "{{host}} / {{dispatcher}} / {{router}}"
            }
          ],
          "timeFrom": null,
          "timeShift": null,
          "title": "Router processing time: $MetricType",
          "tooltip": {
            "msResolution": false,
            "shared": true,
            "value_type": "cumulative",
            "sort": 2
          },
          "type": "graph",
          "xaxis": {
            "show": true
          },
          "yaxes": [
            {
              "format": "ns",
              "label": null,
              "logBase": 1,
              "max": null,
              "min": 0,
              "show": true
            },
            {
              "format": "short",
              "label": null,
              "logBase": 1,
              "max": null,
              "min": null,
              "show": true
            }
          ]
        }
      ]
    }
  ],
  "time": {
    "from": "now-15m",
    "to": "now"
},
  "timepicker": {
    "refresh_intervals": [
      "5s",
      "10s",
      "30s",
      "1m",
      "5m",
      "15m",
      "30m",
      "1h",
      "2h",
      "1d"
    ],
    "time_options": [
      "5m",
      "15m",
      "1h",
      "6h",
      "12h",
      "24h",
      "2d",
      "7d",
      "30d"
    ]
},
  "templating": {
    "list": [
      {
          "current": {},
          "datasource": "Cinnamon Prometheus",
          "hide": 0,
          "includeAll": true,
          "multi": true,
          "name": "Servers",
          "options": [],
          "query": "label_values(host)",
          "refresh": 2,
          "regex": "",
          "tagValuesQuery": "",
          "tagsQuery": "name",
          "type": "query",
          "useTags": false
      },
      {
          "current": {},
          "datasource": "Cinnamon Prometheus",
          "hide": 0,
          "includeAll": true,
          "multi": true,
          "name": "Applications",
          "options": [],
          "query": "label_values(akka_router_router_routed_messages{host=~\"$Servers\"}, application)",
          "refresh": 2,
          "regex": "",
          "tagValuesQuery": "",
          "tagsQuery": "name",
          "type": "query",
          "useTags": false
      },
      {
          "current": {},
          "datasource": "Cinnamon Prometheus",
          "hide": 0,
          "includeAll": true,
          "multi": true,
          "name": "ActorSystems",
          "options": [],
          "query": "label_values(akka_router_router_routed_messages{host=~\"$Servers\", application=~\"$Applications\"}, actor_system)",
          "refresh": 2,
          "regex": "",
          "tagValuesQuery": "",
          "tagsQuery": "name",
          "type": "query",
          "useTags": false
      },
      {
          "current": {},
          "datasource": "Cinnamon Prometheus",
          "hide": 0,
          "includeAll": true,
          "multi": true,
          "name": "Dispatchers",
          "options": [],
          "query": "label_values(akka_router_router_routed_messages{host=~\"$Servers\", application=~\"$Applications\", actor_system=~\"$ActorSystems\"}, dispatcher)",
          "refresh": 2,
          "regex": "",
          "tagValuesQuery": "",
          "tagsQuery": "name",
          "type": "query",
          "useTags": false
      },
      {
          "current": {},
          "datasource": "Cinnamon Prometheus",
          "hide": 0,
          "includeAll": true,
          "multi": true,
          "name": "Routers",
          "options": [],
          "query": "label_values(akka_router_router_routed_messages{host=~\"$Servers\", application=~\"$Applications\", actor_system=~\"$ActorSystems\", dispatcher=~\"$Dispatchers\"}, router)",
          "refresh": 2,
          "regex": "",
          "tagValuesQuery": "",
          "tagsQuery": "name",
          "type": "query",
          "useTags": false
      },
      {
          "current": {},
          "datasource": "Cinnamon Prometheus",
          "hide": 0,
          "includeAll": true,
          "multi": true,
          "name": "MetricType",
          "options": [],
          "query": "label_values(akka_actor_mailbox_size, quantile)",
          "refresh": 2,
          "regex": "",
          "tagValuesQuery": "",
          "tagsQuery": "name",
          "type": "query",
          "useTags": false
      }
    ]
  },
  "annotations": {
  "list": []
  },
  "refresh": false,
  "schemaVersion": 12,
  "version": 3,
  "links": [],
  "gnetId": null
}